<svg xmlns="http://www.w3.org/2000/svg" width="770" height="555" viewBox="0 0 770 555">
    <path fill="#7C6CE6" fill-opacity=".1" fill-rule="evenodd" d="M735.302-154.254c98.157 76.268 53.052 159.667-8.666 185.213-87.428 36.189-125.196.708-122.153 143.97 1.032 48.64-18.08 99.125-59.558 128.588-29.835 21.19-69.855 29.71-106.293 20.6-20.27-5.07-38.81-15.152-58.496-22.078-19.687-6.928-42.085-10.526-61.001-2.437-18.223 7.788-29.925 25.02-37.515 42.642-18.256 42.374-17.58 91.065-39.93 131.929-18.839 34.443-54.154 66.2-94.142 76.304C95.204 563.705 40.067 541.59-6.23 518.564c-54.295-27.008-102.692-64.562-143.208-108.365-51.876-56.113-91.018-122.255-119.27-191.823-25.147-61.933-41.984-127.504-41.884-193.532.168-104.423 50.265-246.328 180.836-246.847 61.763-.25 98.463 22.137 124.884 42.709 40.805 31.773 57.062 59.218 103.32-7.711 45.59-65.981 171.79-130.635 280.21 2.638 56.603 69.579 112.783 44.78 173.666 20.81 55.738-21.943 115.42-43.19 182.977 9.303z" opacity=".45"/>
</svg>
