<?xml version="1.0" encoding="UTF-8"?>
<svg width="26px" height="46px" viewBox="0 0 26 46" version="1.1" xmlns="http://www.w3.org/2000/svg" xmlns:xlink="http://www.w3.org/1999/xlink">
    <!-- Generator: Sketch 52.5 (67469) - http://www.bohemiancoding.com/sketch -->
    <title>noun_Next_1153684</title>
    <desc>Created with Sketch.</desc>
    <g id="Page-1" stroke="none" stroke-width="1" fill="none" fill-rule="evenodd">
        <g id="6.Educational-Info" transform="translate(-116.000000, -264.000000)" fill="#FFFFFF">
            <g id="noun_Next_1153684" transform="translate(116.000000, 264.000000)">
                <path d="M31.231996,34.768 C32.208996,35.744 33.790996,35.744 34.767996,34.768 C35.743996,33.791 35.743996,32.209 34.767996,31.232 L14.767996,11.232 C13.790996,10.256 12.208996,10.256 11.231996,11.232 L-8.768004,31.232 C-9.744004,32.209 -9.744004,33.791 -8.768004,34.768 C-7.791004,35.744 -6.209004,35.744 -5.232004,34.768 L12.999996,16.536 L31.231996,34.768 Z" id="Path" transform="translate(12.999996, 23.000000) rotate(90.000000) translate(-12.999996, -23.000000) "></path>
            </g>
        </g>
    </g>
</svg>