<svg xmlns="http://www.w3.org/2000/svg" width="55" height="60" viewBox="0 0 55 60">
    <g fill="none" fill-rule="evenodd">
        <path fill="#6D7BFC" d="M28.143 9.556L26.71 0H5.68C2.514 0 0 2.595 0 5.78v40.007c0 3.185 2.514 5.728 5.681 5.728h19.948L40 29.625V14.012L28.143 9.556z"/>
        <path fill="#B6BDFD" d="M26.667 0L40 13.94h-8.876a4.444 4.444 0 0 1-4.457-4.438V0z"/>
        <g fill="#FFF">
            <path d="M26.27 30.102H9.244c-.719 0-1.307.582-1.307 1.292 0 .71.588 1.291 1.307 1.291h17.028c.718 0 1.307-.58 1.307-1.29 0-.711-.575-1.293-1.307-1.293zM9.243 26.228h13.238c.719 0 1.307-.58 1.307-1.291 0-.71-.588-1.292-1.307-1.292H9.243c-.719 0-1.307.582-1.307 1.292 0 .71.588 1.291 1.307 1.291zM21.971 36.689H9.243c-.719 0-1.307.581-1.307 1.291s.588 1.292 1.307 1.292h12.728c.72 0 1.307-.581 1.307-1.292 0-.71-.588-1.291-1.307-1.291z"/>
        </g>
        <path fill="#C98AEB" d="M54.545 43.34c0 9.199-7.463 16.66-16.666 16.66a16.645 16.645 0 0 1-14.654-8.729 16.631 16.631 0 0 1-2.013-7.944c0-9.2 7.464-16.66 16.667-16.66.784.013 1.555.065 2.327.17 8.105 1.136 14.34 8.088 14.34 16.503z"/>
        <path fill="#FFF" d="M38.539 33.747a1.349 1.349 0 0 0-.967-.414 1.35 1.35 0 0 0-.967.414l-7.765 8.137a1.267 1.267 0 0 0 .067 1.824c.251.233.583.35.9.35.358 0 .729-.143.994-.414l5.486-5.731V52.04c0 .71.596 1.293 1.324 1.293.73 0 1.325-.582 1.325-1.293V37.913l5.446 5.73a1.343 1.343 0 0 0 1.868.065c.53-.491.557-1.306.066-1.824l-7.777-8.137z"/>
    </g>
</svg>
