<svg xmlns="http://www.w3.org/2000/svg" width="47" height="70" viewBox="0 0 47 70">
    <defs>
        <radialGradient id="a" cx="100%" cy="25.159%" r="123.653%" fx="100%" fy="25.159%" gradientTransform="scale(-1 -.65945) rotate(-62.654 -.52 1.578)">
            <stop offset="0%" stop-color="#C97FD7"/>
            <stop offset="100%" stop-color="#7445E4"/>
        </radialGradient>
    </defs>
    <path fill="url(#a)" fill-rule="evenodd" d="M963.133 192c12.108 0 24.028 5.576 24.028 18.914 0 12.3-14.094 17.03-17.121 21.475-2.273 3.306-1.514 7.951-7.757 7.951-4.068 0-6.054-3.308-6.054-6.335 0-11.264 16.55-13.813 16.55-23.089 0-5.105-3.398-8.132-9.077-8.132-12.108 0-7.38 12.483-16.55 12.483-3.31 0-6.152-1.987-6.152-5.768-.002-9.277 10.59-17.499 22.133-17.499zm-.47 54.481c4.25 0 7.756 3.496 7.756 7.76 0 4.263-3.5 7.759-7.757 7.759s-7.76-3.491-7.76-7.76c0-4.26 3.503-7.759 7.76-7.759z" transform="translate(-941 -192)"/>
</svg>
