<svg xmlns="http://www.w3.org/2000/svg" width="30" height="30" viewBox="0 0 30 30">
    <defs>
        <radialGradient id="a" cx="100%" cy="25.159%" r="218.228%" fx="100%" fy="25.159%" gradientTransform="scale(-1 -.34375) rotate(-74.913 -.642 1.065)">
            <stop offset="0%" stop-color="#C97FD7"/>
            <stop offset="100%" stop-color="#7445E4"/>
        </radialGradient>
        <radialGradient id="b" cx="100%" cy="25.159%" r="266.971%" fx="100%" fy="25.159%" gradientTransform="matrix(-.21276 .2713 -.05997 -.9625 1.228 .222)">
            <stop offset="0%" stop-color="#C97FD7"/>
            <stop offset="100%" stop-color="#7445E4"/>
        </radialGradient>
        <radialGradient id="c" cx="100%" cy="34.954%" r="850.971%" fx="100%" fy="34.954%" gradientTransform="matrix(-.0473 .06643 -.00315 -.9978 1.048 .632)">
            <stop offset="0%" stop-color="#00C6FB"/>
            <stop offset="100%" stop-color="#3480F8"/>
        </radialGradient>
        <radialGradient id="d" cx="100%" cy="34.954%" r="74.079%" fx="100%" fy="34.954%" gradientTransform="scale(-1 -.9091) rotate(-57.081 -.675 1.821)">
            <stop offset="0%" stop-color="#00C6FB"/>
            <stop offset="100%" stop-color="#3480F8"/>
        </radialGradient>
        <radialGradient id="e" cx="100%" cy="25.159%" r="92.177%" fx="100%" fy="25.159%" gradientTransform="matrix(-.61622 .78577 -.78286 -.61851 1.813 -.379)">
            <stop offset="0%" stop-color="#C97FD7"/>
            <stop offset="100%" stop-color="#7445E4"/>
        </radialGradient>
        <radialGradient id="f" cx="100%" cy="25.159%" r="92.177%" fx="100%" fy="25.159%" gradientTransform="matrix(-.61622 .78577 -.78286 -.61851 1.813 -.379)">
            <stop offset="0%" stop-color="#C97FD7"/>
            <stop offset="100%" stop-color="#7445E4"/>
        </radialGradient>
    </defs>
    <g fill="none" fill-rule="evenodd">
        <g fill="#DA8C36">
            <path d="M3.485 28.69v-2.754c0-.413-.273-.688-.682-.688-.408 0-.68.275-.68.688v2.755h1.362zM28.007 28.69v-2.754c0-.413-.272-.688-.681-.688-.409 0-.681.275-.681.688v2.755h1.362z"/>
        </g>
        <g fill="#ECA485">
            <path d="M26.645 25.248v1.377h.681v2.066h.681V25.248zM2.122 25.248v1.377h.681v2.066h.682V25.248z"/>
        </g>
        <path fill="url(#a)" d="M15.065 4.138c-.427 0-.712-.276-.712-.69V.69c0-.414.285-.69.712-.69.426 0 .71.276.71.69v2.758c0 .414-.284.69-.71.69z"/>
        <path fill="#7F8BFB" d="M6.853 28.578V6.77c0-.41.274-.682.685-.682h3.421c.41 0 .684-.273.684-.681V4.044c0-.41.274-.682.685-.682h5.474c.41 0 .684.273.684.682v1.363c0 .408.274.681.684.681h3.422c.41 0 .684.273.684.682v21.808H6.853z"/>
        <path fill="url(#b)" d="M20.524 10.862H9.604c-.409 0-.682-.272-.682-.679V8.825c0-.407.273-.678.683-.678h10.92c.409 0 .682.271.682.678v1.358c0 .407-.273.68-.683.68z" opacity=".5"/>
        <g fill="#FFF" opacity=".15">
            <path d="M14.3 10.943h-1.364l2.045-2.759h1.363zM17.708 10.943H14.98l2.045-2.759h2.727z"/>
        </g>
        <path fill="url(#b)" d="M20.524 15H9.604c-.409 0-.682-.272-.682-.679v-1.358c0-.407.273-.679.683-.679h10.92c.409 0 .682.272.682.68v1.357c0 .407-.273.679-.683.679z" opacity=".5"/>
        <g fill="#FFF" opacity=".15">
            <path d="M14.3 15h-1.364l2.045-2.69h1.363zM17.708 15H14.98l2.045-2.69h2.727z"/>
        </g>
        <path fill="url(#b)" d="M20.524 19.138H9.604c-.409 0-.682-.272-.682-.679v-1.358c0-.407.273-.679.683-.679h10.92c.409 0 .682.272.682.68v1.357c0 .407-.273.679-.683.679z" opacity=".5"/>
        <g fill="#FFF" opacity=".15">
            <path d="M14.3 19.127h-1.364l2.045-2.689h1.363zM17.708 19.127H14.98l2.045-2.689h2.727z"/>
        </g>
        <path fill="url(#b)" d="M20.524 23.147H9.604c-.409 0-.682-.272-.682-.68V21.11c0-.407.273-.679.683-.679h10.92c.409 0 .682.272.682.679v1.358c0 .407-.273.679-.683.679z" opacity=".5"/>
        <g fill="#FFF" opacity=".15">
            <path d="M14.3 23.126h-1.364l2.045-2.69h1.363zM17.708 23.126H14.98l2.045-2.69h2.727z"/>
        </g>
        <path fill="url(#c)" d="M29.318 30H.682C.272 30 0 29.715 0 29.289c0-.427.273-.711.682-.711h28.636c.41 0 .682.284.682.71 0 .427-.273.712-.682.712z"/>
        <path fill="#B6BDFD" d="M29.353 23.825c0 1.155-.896 2.037-2.069 2.037-1.172 0-2.068-.882-2.068-2.037 0-1.154 2.068-3.394 2.068-3.394s2.07 2.24 2.07 3.394z"/>
        <path fill="url(#d)" d="M28.314 21.724c.208.482.347.895.347 1.239 0 1.308-.9 2.34-2.079 2.34-.415 0-.762-.138-1.108-.344.346.62 1.04 1.032 1.801 1.032 1.178 0 2.078-.894 2.078-2.064 0-.551-.554-1.446-1.039-2.203z" opacity=".3"/>
        <path fill="#B6BDFD" d="M4.784 23.825c0 1.155-.896 2.037-2.068 2.037-1.173 0-2.07-.882-2.07-2.037 0-1.154 2.07-3.394 2.07-3.394s2.068 2.24 2.068 3.394z"/>
        <path fill="url(#e)" d="M4.1.053h4.084v4.069H4.1z" transform="translate(8.922 24.44)"/>
        <path fill="url(#f)" d="M11.588 2.766h-1.362c-.408 0-.68-.272-.68-.678V.73c0-.407.272-.678.68-.678h1.362c.408 0 .68.271.68.678v1.357c0 .406-.272.678-.68.678zM2.058 2.766H.697c-.409 0-.681-.272-.681-.678V.73c0-.407.272-.678.68-.678h1.362c.408 0 .68.271.68.678v1.357c0 .406-.272.678-.68.678z" transform="translate(8.922 24.44)"/>
        <path fill="url(#d)" d="M3.745 21.724c.208.482.347.895.347 1.239 0 1.308-.9 2.34-2.078 2.34-.416 0-.762-.138-1.109-.344.347.62 1.04 1.032 1.801 1.032 1.178 0 2.078-.894 2.078-2.064 0-.551-.554-1.446-1.039-2.203z" opacity=".3"/>
        <path fill="#7F8BFB" d="M17.78 3.362h-5.43c-.408 0-.68.272-.68.679v1.358c0 .407-.271.679-.679.679h8.147c-.407 0-.679-.272-.679-.68V4.042c0-.407-.272-.679-.679-.679z"/>
        <g fill="#FFF" opacity=".7" transform="translate(14.353 26.509)">
            <ellipse cx="1.056" cy=".506" rx="1" ry="1"/>
            <ellipse cx=".366" cy=".506" rx="1" ry="1"/>
        </g>
    </g>
</svg>
