<?xml version="1.0" encoding="UTF-8"?>
<svg width="50px" height="50px" viewBox="0 0 50 50" version="1.1" xmlns="http://www.w3.org/2000/svg" xmlns:xlink="http://www.w3.org/1999/xlink">
    <!-- Generator: Sketch 52.5 (67469) - http://www.bohemiancoding.com/sketch -->
    <title>Group 5</title>
    <desc>Created with Sketch.</desc>
    <g id="Page-1" stroke="none" stroke-width="1" fill="none" fill-rule="evenodd">
        <g id="Welcome-Modal" transform="translate(-940.000000, -494.000000)">
            <g id="Group-5" transform="translate(940.000000, 494.000000)">
                <circle id="Oval" fill="#826BEA" cx="25" cy="25" r="25"></circle>
                <g id="noun_Arrow_1920806" transform="translate(14.000000, 17.000000)" fill="#FFFFFF">
                    <path d="M21.5136842,7.33253012 L14.7284211,0.474010327 C14.1031579,-0.158003442 13.0610526,-0.158003442 12.4357895,0.474010327 C11.8105263,1.1060241 11.8105263,2.15938038 12.4357895,2.79139415 L16.4421053,6.86437177 L1.62105263,6.86437177 C0.717894737,6.86437177 0,7.59001721 0,8.50292599 C0,9.41583477 0.717894737,10.1414802 1.62105263,10.1414802 L16.4421053,10.1414802 L12.4357895,14.1910499 C11.8105263,14.8230637 11.8105263,15.87642 12.4357895,16.5084337 C12.76,16.8361446 13.1768421,17 13.5936842,17 C14.0105263,17 14.4273684,16.8361446 14.7515789,16.5084337 L21.5136842,9.67332186 C21.8147368,9.36901893 22,8.94767642 22,8.50292599 C22,8.05817556 21.8378947,7.63683305 21.5136842,7.33253012 Z" id="Path"></path>
                </g>
            </g>
        </g>
    </g>
</svg>