<svg xmlns="http://www.w3.org/2000/svg" width="1238" height="48" viewBox="0 0 1238 48">
    <defs>
        <linearGradient id="a" x1="0%" x2="23.506%" y1="50%" y2="50%">
            <stop offset="0%" stop-color="#C887EB"/>
            <stop offset="100%" stop-color="#6E7BFC"/>
        </linearGradient>
    </defs>
    <path fill="url(#a)" fill-rule="evenodd" d="M1301.82 59a44.56 44.56 0 0 1 .18 4c0 24.3-19.7 44-44 44H108c-24.3 0-44-19.7-44-44 0-1.348.06-2.683.18-4h1237.64z" transform="translate(-64 -59)"/>
</svg>
