<?xml version="1.0" encoding="UTF-8"?>
<svg width="22px" height="23px" viewBox="0 0 22 23" version="1.1" xmlns="http://www.w3.org/2000/svg" xmlns:xlink="http://www.w3.org/1999/xlink">
    <!-- Generator: Sketch 52.5 (67469) - http://www.bohemiancoding.com/sketch -->
    <title>noun_profile_2250856 copy</title>
    <desc>Created with Sketch.</desc>
    <g id="Page-1" stroke="none" stroke-width="1" fill="none" fill-rule="evenodd">
        <g id="Recomendation-card-section" transform="translate(-516.000000, -67.000000)" fill="#999999">
            <g id="noun_profile_2250856-copy" transform="translate(516.000000, 67.000000)">
                <g id="Group" transform="translate(0.721300, 0.000000)">
                    <ellipse id="Oval" cx="10.2222222" cy="5.27230769" rx="5.29365079" ry="5.13076923"></ellipse>
                    <path d="M10.2222222,11.5 C4.6,11.5 0.0365079365,15.9230769 0.0365079365,21.3723077 L0.0365079365,22.8938462 L20.4079365,22.8938462 L20.4079365,21.3723077 C20.4079365,15.9230769 15.8444444,11.5 10.2222222,11.5 Z" id="Path"></path>
                </g>
            </g>
        </g>
    </g>
</svg>