<svg xmlns="http://www.w3.org/2000/svg" width="25" height="15" viewBox="0 0 25 15">
    <g fill="#000" fill-rule="evenodd" opacity=".5" transform="rotate(5 12.5 7.5)">
        <path d="M14.625 7.542l-3.292 5.083c-.875 1.333.625 2.875 2 2.125l11.125-6.417c.584-.333.584-1.208 0-1.541L13.333.333c-1.375-.791-2.875.792-2 2.125l3.292 5.084z"/>
        <circle cx="8.208" cy="7.542" r="3.042"/>
        <circle cx="1.542" cy="7.542" r="1.417"/>
    </g>
</svg>
