<svg xmlns="http://www.w3.org/2000/svg" width="80" height="80" viewBox="0 0 80 80">
    <g fill="none" fill-rule="evenodd">
        <path fill="#8F70E6" d="M0 0v80h80z"/>
        <path fill="#FFF" d="M12.632 32.28v35.088h35.087z"/>
        <path fill="#7F8BFB" d="M63.158 0H80v70.175H63.158zM63.158 70.175H80V80H63.158z"/>
        <path fill="#AED3FF" d="M64.561 70.175h9.825V80h-9.825z"/>
        <path fill="#BFBFBF" d="M44.912 63.158h14.035V30.409c0-3.617-3.142-6.55-7.017-6.55-3.876 0-7.018 2.933-7.018 6.55v32.749z"/>
        <path fill="#E8E8E8" d="M50.526 23.86c-2.433.847-4.21 3.317-4.21 6.27v33.028h8.42V30.13c0-2.953-1.776-5.423-4.21-6.27z"/>
        <path fill="#FDBEA3" d="M51.93 63.425h-7.018V33.183h14.035v30.242H51.93z"/>
        <path fill="#A36D56" d="M44.912 63.158l7.018 14.035 7.017-14.035"/>
        <path fill="#B47E67" d="M54.737 64.561h-8.421l4.21 8.421z"/>
        <path fill="#404040" d="M56.14 68.772h-8.42l4.21 8.421z"/>
        <path fill="#4D4D4D" d="M53.333 68.772H47.72l2.807 5.614z"/>
        <g fill="#FFF">
            <path d="M63.823 56h6.648v2.66h-6.648zM63.823 47h6.648v2.66h-6.648zM63.823 38h6.648v2.66h-6.648zM63.823 30h6.648v2.66h-6.648zM63.823 21h6.648v2.66h-6.648zM63.823 12.53h6.648v2.658h-6.648zM0 58h9.307v2.66H0zM0 50h9.307v2.66H0zM0 42h9.307v2.66H0zM0 33h9.307v2.66H0zM31 73.21h2.66v6.649H31zM39 73.21h2.66v6.649H39zM24 73.352h2.66V80H24zM17.285 73.352h2.66V80h-2.66zM0 24.825h9.307v2.66H0zM67.812 73.352h2.659v2.66h-2.66zM73.13 73.352h2.66v2.66h-2.66z"/>
        </g>
    </g>
</svg>
