<svg xmlns="http://www.w3.org/2000/svg" width="15" height="15" viewBox="0 0 15 15">
    <path fill="#000" fill-rule="nonzero" d="M14.745 6.084l-1.854-.273a5.272 5.272 0 0 0-.384-.93l1.116-1.503a.297.297 0 0 0-.027-.39l-1.584-1.581a.294.294 0 0 0-.39-.03l-1.503 1.116a5.273 5.273 0 0 0-.93-.384L8.916.258A.298.298 0 0 0 8.619 0H6.381a.298.298 0 0 0-.297.258l-.273 1.851a5.273 5.273 0 0 0-.93.384L3.378 1.377a.297.297 0 0 0-.39.03L1.404 2.988a.297.297 0 0 0-.027.39l1.116 1.503a5.272 5.272 0 0 0-.384.93l-1.854.273A.298.298 0 0 0 0 6.381v2.238c0 .15.108.276.255.297l1.854.273c.099.324.228.636.384.93l-1.116 1.503a.297.297 0 0 0 .027.39l1.584 1.584a.297.297 0 0 0 .39.027l1.503-1.116c.294.156.606.285.93.384l.273 1.854a.298.298 0 0 0 .297.255h2.238c.15 0 .276-.108.297-.255l.273-1.854c.324-.099.636-.228.93-.384l1.503 1.116c.117.09.285.078.39-.027l1.584-1.584a.297.297 0 0 0 .027-.39l-1.116-1.503c.156-.294.285-.606.384-.93l1.854-.273A.298.298 0 0 0 15 8.619V6.381a.298.298 0 0 0-.255-.297zM7.5 11.292A3.796 3.796 0 0 1 3.708 7.5 3.796 3.796 0 0 1 7.5 3.708 3.796 3.796 0 0 1 11.292 7.5 3.796 3.796 0 0 1 7.5 11.292z" opacity=".4"/>
</svg>
