<svg xmlns="http://www.w3.org/2000/svg" width="40" height="41" viewBox="0 0 40 41">
    <g fill="none" fill-rule="evenodd">
        <path stroke="#959FFE" d="M38.893 20.698c0-9.673-7.092-17.816-16.514-19.147a22.602 22.602 0 0 0-2.682-.198C9.098 1.353.5 10.01.5 20.683c0 3.258.805 6.403 2.32 9.22 3.319 6.185 9.757 10.125 16.877 10.125 10.598 0 19.196-8.656 19.196-19.33z"/>
        <path fill="#99A3FE" d="M30.354 20.787l-9.044-.318.32-9.224c.032-.934-.658-1.692-1.602-1.725-.91-.032-1.652.675-1.684 1.61l-.319 9.18-9.044-.317c-.943-.033-1.684.674-1.717 1.608-.032.934.658 1.692 1.601 1.725l9.045.318-.32 9.181c-.032.934.659 1.692 1.57 1.724.943.033 1.684-.675 1.717-1.609l.318-9.18 9.044.317c.944.033 1.685-.674 1.717-1.608.033-.934-.659-1.65-1.602-1.682z"/>
    </g>
</svg>
