<svg xmlns="http://www.w3.org/2000/svg" width="62" height="65" viewBox="0 0 62 65">
    <defs>
        <filter id="a" width="125%" height="140%" x="-12.5%" y="-20%" filterUnits="objectBoundingBox">
            <feOffset dy="8" in="SourceAlpha" result="shadowOffsetOuter1"/>
            <feGaussianBlur in="shadowOffsetOuter1" result="shadowBlurOuter1" stdDeviation="9"/>
            <feColorMatrix in="shadowBlurOuter1" result="shadowMatrixOuter1" values="0 0 0 0 0 0 0 0 0 0 0 0 0 0 0 0 0 0 0.0355242301 0"/>
            <feMerge>
                <feMergeNode in="shadowMatrixOuter1"/>
                <feMergeNode in="SourceGraphic"/>
            </feMerge>
        </filter>
    </defs>
    <g fill="none" fill-rule="evenodd" filter="url(#a)" transform="translate(-319 -164)">
        <path fill="#6D7BFC" d="M351.09 178.755l-.718-4.755h-10.528c-1.585 0-2.844 1.292-2.844 2.877v19.908a2.831 2.831 0 0 0 2.844 2.851h9.987l7.195-10.894v-7.769l-5.936-2.218z"/>
        <path fill="#B6BDFD" d="M350.372 174.007l6.634 6.966h-4.416a2.216 2.216 0 0 1-2.218-2.218v-4.748z"/>
        <g fill="#FFF">
            <path d="M350.118 188.938h-8.5a.654.654 0 0 0-.652.652c0 .36.294.653.652.653h8.5a.654.654 0 0 0 .652-.653.65.65 0 0 0-.652-.652zM341.618 186.981h6.608a.654.654 0 0 0 .653-.652.654.654 0 0 0-.653-.653h-6.608a.654.654 0 0 0-.652.653c0 .359.294.652.652.652zM347.972 192.265h-6.354a.654.654 0 0 0-.652.652c0 .359.294.652.652.652h6.354a.654.654 0 0 0 .652-.652.654.654 0 0 0-.652-.652z"/>
        </g>
        <path fill="#C98AEB" d="M364.162 195.683a8.318 8.318 0 0 1-8.317 8.317 8.306 8.306 0 0 1-7.312-4.358 8.318 8.318 0 0 1 7.313-12.283 9.84 9.84 0 0 1 1.16.085 8.32 8.32 0 0 1 7.156 8.239z"/>
        <path fill="#FFF" d="M356.308 190.869a.657.657 0 0 0-.476-.209.657.657 0 0 0-.476.209l-3.823 4.103a.65.65 0 0 0 .033.92.649.649 0 0 0 .444.176.683.683 0 0 0 .489-.209l2.7-2.89v7.124c0 .358.294.652.653.652a.654.654 0 0 0 .652-.652v-7.124l2.681 2.89a.65.65 0 1 0 .953-.887l-3.83-4.103z"/>
    </g>
</svg>
